1 Single Species Modeling – HRM-ML Paper
…
Warning: There was 1 warning in `dplyr::mutate()`.
ℹ In argument: `ct = as.numeric(ct)`.
Caused by warning:
! NAs introduced by coercion

Joining with `by = join_by(well_position)`

mono_ct = qs_results  |> 
  dplyr::filter(well_position %in% unlist(strain_single_well))
mono_ct

# A tibble: 90 × 4
   well_position    ct strain  quantity
   <chr>         <dbl> <chr>      <dbl>
 1 A1             15.4 label_E      1  
 2 A2             13.9 label_E      1  
 3 A3             15.2 label_E      1  
 4 A4             18.3 label_P      1  
 5 A5             20.1 label_P      1  
 6 A6             19.0 label_P      1  
 7 B1             14.5 label_E      0.5
 8 B2             14.3 label_E      0.5
 9 B3             14.8 label_E      0.5
10 B4             15.2 label_P      0.5
# ℹ 80 more rows
…
peak_cols = paste('peak', 
                  c('height','area','start','position','end'), 
                  sep = "_")
mono_mc = mono_mc |> 
  dplyr::select(well_position, strain, quantity, matches(peak_cols))

mono_mc

# A tibble: 96 × 8
   well_position strain  quantity peak_height peak_area peak_start peak_position
   <chr>         <chr>      <dbl>       <dbl>     <dbl>      <dbl>         <dbl>
 1 A1            label_E    1           0.644     0.740       82.1          84.3
 2 A2            label_E    1           0.801     0.938       82.3          84.3
 3 A3            label_E    1           0.673     0.791       82.2          84.3
 4 B1            label_E    0.5         0.761     0.898       82.4          84.4
 5 B2            label_E    0.5         0.882     1.06        83            84.8
 6 B3            label_E    0.5         0.751     0.905       82.1          84.3
 7 C1            label_E    0.25        0.771     0.946       82            84.3
 8 C2            label_E    0.25        0.844     1.06        82.1          84.4
 9 C3            label_E    0.25        0.737     0.871       82.4          84.3
10 D1            label_E    0.125       0.691     0.838       82.2          84.3
# ℹ 86 more rows
# ℹ 1 more variable: peak_end <dbl>
…
Figure 1.8: Correlation of log2-transformed DNA quantities and peak areas

1.8 Comparision of Ct and MC modelling

qs_single_results = qs_results |> 
  dplyr::filter(well_position %in% unlist(strain_single_well))
qs_single_results

# A tibble: 90 × 4
   well_position    ct strain  quantity
   <chr>         <dbl> <chr>      <dbl>
 1 A1             15.4 label_E      1  
 2 A2             13.9 label_E      1  
 3 A3             15.2 label_E      1  
 4 A4             18.3 label_P      1  
 5 A5             20.1 label_P      1  
 6 A6             19.0 label_P      1  
 7 B1             14.5 label_E      0.5
 8 B2             14.3 label_E      0.5
 9 B3             14.8 label_E      0.5
10 B4             15.2 label_P      0.5
# ℹ 80 more rows
…
